<?xml version="1.0" encoding="utf-8"?>
<!-- Svg Vector Icons : http://www.onlinewebfonts.com/icon -->
<!DOCTYPE svg PUBLIC "-//W3C//DTD SVG 1.1//EN" "http://www.w3.org/Graphics/SVG/1.1/DTD/svg11.dtd">
<svg version="1.1" xmlns="http://www.w3.org/2000/svg" xmlns:xlink="http://www.w3.org/1999/xlink" x="0px" y="0px" viewBox="0 0 1000 1000" enable-background="new 0 0 1000 1000" xml:space="preserve">
<metadata> Svg Vector Icons : http://www.onlinewebfonts.com/icon </metadata>
<g><path d="M10.4,10v187.9c436.2,0,791.2,355.4,791.2,792.1H990C990,449.8,550.5,10,10.4,10z M468.3,990h188.6C657,633.2,366.7,342.9,10.1,342.9v187.9c122.3,0,237.3,47.8,323.9,134.5C420.5,751.7,468.3,867.2,468.3,990z M140.5,988.8c72.2,0,130.6-58.1,130.6-130c-0.1-71.5-58.4-130.2-130.6-130.2c-72,0-130.5,58.7-130.5,130.2C10,930.7,68.5,988.8,140.5,988.8z"/></g>
</svg>